{
  "currentPage": {
    "url":  "/routerExample",
    "params": []
  },
  "template": {
    "familyPath": "../../components/cells-template-paper-header-panel",
    "tag": "cells-template-paper-header-panel",
    "properties": {
      "mode": "seamed",
      "zones": [
        "app__header",
        "app__main",
        "app__footer"
      ]
    }
  },
  "components": [
    {
      "zone": "app__main",
      "familyPath": "../elements/router-example",
      "tag": "router-example",
      "properties": {
       "cellsConnections": {
          "in": {},
          "out": {
            "return-home": {
              "bind": "home-event",
              "link" : {
                "page" : "home"
              }
            }
          },
          "params": {
            "query-param": "queryParamGlobal",
            "query-param-two":"queryParamTwo",
            "state-param": "stateParam"
          }
        }
      }
    }
  ],
  "pages": []
}
